{ "total_results": 640591, "total_pages": 32030, "current_page": 0, "items_per_page": 20, "documents": [ { "id": 37465, "title": "Why most published research findings are false: author's reply to G oodman and Greenland.", "publication_outlet": "PLoS Medicine", "year": 2007, "mendeley_url": "http:\/\/www.mendeley.com\/research\/why-most-published-rese arch-findings-are-false\/", "doi": null, "authors": "Ioannidis." }, { "id": 70751, "title": "The importance of stupidity in scientific research.", "publication_outlet": "Journal of Cell Science", "year": 2008, "mendeley_url": "http:\/\/www.mendeley.com\/research\/the-importance-of-stupi dity-in-scientific-research\/", "doi": null, "authors": "Schwartz." }, { "id": 2335, "title": "Building theories from case study research", "publication_outlet": "Academy of Management Review", "year": 1989, "mendeley_url": "http:\/\/www.mendeley.com\/research\/building-theories-from- case-study-research\/", "doi": "10.2307\/258557", "authors": "Eisenhardt." }, { "id": 3482896, "title": "Import citations into your digital library using the Mendeley Bookm arklet | Mendeley", "publication_outlet": "1", "year": 2010, "mendeley_url": "http:\/\/www.mendeley.com\/research\/entwicklung-eines-selbs tverdichtenden-betons-mit-inerten-zusatzstoffen\/", "doi": null, "authors": "Mendeley." }, { "id": 2268, "title": "On action research.", "publication_outlet": "The Health Service Journal", "year": 2005, "mendeley_url": "http:\/\/www.mendeley.com\/research\/action-research\/", "doi": null, "authors": "Woodhead." }, { "id": 483798, "title": "Research article", "publication_outlet": "Transgenic Research", "year": 2003, "mendeley_url": "http:\/\/www.mendeley.com\/research\/research-article-1\/", "doi": "10.1023\/B:TRAG.0000005082.29212.cf", "authors": "In, Of." }, { "id": 2285, "title": "Design Science in Information Systems Research", "publication_outlet": "MIS Quarterly", "year": 2004, "mendeley_url": "http:\/\/www.mendeley.com\/research\/real-options-in-informa tion-technology-risk-management-an-empirical-validation-of-riskoption-relationships\/", "doi": "10.2307\/249422", "authors": "Hevner et al." }, { "id": 1183663, "title": "Research article", "publication_outlet": "Transgenic Research", "year": 2003, "mendeley_url": "http:\/\/www.mendeley.com\/research\/research-article-3\/", "doi": "10.1023\/B:TRAG.0000005082.29212.cf", "authors": "In, Of." }, { "id": 1251951, "title": "Researching Design and Designing Research", "publication_outlet": "Design Issues", "year": 1999, "mendeley_url": "http:\/\/www.mendeley.com\/research\/design-and-the-construc tion-of-publics\/", "doi": null, "authors": "Glanville." }, { "id": 2442532, "title": "How to choose a good scientific problem.", "publication_outlet": "Molecular Cell", "year": 2009, "mendeley_url": "http:\/\/www.mendeley.com\/research\/how-to-choose-a-good-sc ientific-problem\/", "doi": null, "authors": "Alon." }, { "id": 3817162, "title": "Case Study Research: Design and Methods", "publication_outlet": "Essential guide to qualitative methods in organization al research", "year": 2003, "mendeley_url": "http:\/\/www.mendeley.com\/research\/hotels-website-developm ent-level-the-case-of-majorca-autoria-serje-schmidt-maria-cristina-bohnenberger-antoni-se rra-cantallops\/", "doi": null, "authors": "Yin." }, { "id": 181733, "title": "The promise of entrepreneurship as a field of research", "publication_outlet": "Academy of Management Review", "year": 2000, "mendeley_url": "http:\/\/www.mendeley.com\/research\/the-promise-of-entrepre neurship-as-a-field-of-research\/", "doi": "10.2307\/259271", "authors": "Shane, Venkataraman." }, { "id": 5482953, "title": "How to build a motivated research group.", "publication_outlet": "Molecular Cell", "year": 2010, "mendeley_url": "http:\/\/www.mendeley.com\/research\/build-motivated-researc h-group\/", "doi": "10.1016\/j.molcel.2010.01.011", "authors": "Alon." }, { "id": 66179, "title": "Survey research.", "publication_outlet": "Journal of renal nutrition the official journal of the Council on Renal Nutrition of the National Kidney Foundation", "year": 2006, "mendeley_url": "http:\/\/www.mendeley.com\/research\/survey-research\/", "doi": null, "authors": "Brommage." }, { "id": 27742, "title": "The Network Paradigm in Organizational Research: A Review and Typol ogy", "publication_outlet": "Journal of Management", "year": 2003, "mendeley_url": "http:\/\/www.mendeley.com\/research\/strategic-decision-proc esses-critical-review-and-future-directions\/", "doi": "10.1016\/S0149-2063(03)00087-4", "authors": "Borgatti, Foster." }, { "id": 173520, "title": "Research design.", "publication_outlet": "Plastic surgical nursing official journal of the Ameri can Society of Plastic and Reconstructive Surgical Nurses", "year": 1993, "mendeley_url": "http:\/\/www.mendeley.com\/research\/research-design\/", "doi": null, "authors": "Megel, Heermann." }, { "id": 4029537, "title": "International Workshop on Semantic Learning Applications in Multime dia (SLAM)", "publication_outlet": "New York", "year": 2006, "mendeley_url": "http:\/\/www.mendeley.com\/research\/international-workshop- on-semantic-learning-applications-in-multimedia-slam\/", "doi": null, "authors": "Chairs et al." }, { "id": 93073, "title": "The moderator-mediator variable distinction in social psychological research: conceptual, strategic, and statistical considerations.", "publication_outlet": "Journal of Personality and Social Psychology", "year": 1986, "mendeley_url": "http:\/\/www.mendeley.com\/research\/the-moderatormediator-v ariable-distinction-in-social-psychological-research-conceptual-strategic-and-statistical -considerations\/", "doi": "10.1037\/0022-3514.51.6.1173", "authors": "Baron, Kenny." }, { "id": 656231, "title": "Research highlights", "publication_outlet": "October", "year": 2008, "mendeley_url": "http:\/\/www.mendeley.com\/research\/research-highlights-200 8\/", "doi": "10.1021\/ja804164y", "authors": "Brockes." } ] }